…
arrange permet d’organiser le tableau en fonction d’une ou pluieurs colonnes.

arrange (table, Prof) #reéorganise le tableau avec la colonne profondeur en ordre croissant

arrange (table, desc(Prof)) #reéorganise le tableau avec la colonne profondeur en ordre décroissant

mutate permet de créer une nouvelle variable, une nouvelle colonne, à partir d’une autre variable.

mutate (table, ceph = Poulpe + Seiche) #créer une colonne "ceph" correspondant à l'addition de la colonne Poulpe et de la colonne Seiche

group_by permet de regrouper des lignes en fonction de valeurs d’une ou plusieurs colonnes. Il et utile par exemple pour appliquer les operations aux groupes de notre choix.

group_by (table, Zone) #regroupe les lignes en fonction de la Zone

## # A tibble: 28 x 18
## # Groups:   Zone [4]
##    Sais  Zone  Mod    Prof Atherine BlennieDeRoux Canthare Castagnole
##    <chr> <chr> <chr> <int>    <int>         <int>    <int>      <int>
##  1 Chau~ Z1    Buse~    11        0             0        0          0
##  2 Chau~ Z1    Buse~    11        0             0        0          0
##  3 Chau~ Z1    Buse~    11        0             0        0          0
##  4 Chau~ Z1    Proto    11        0             0        0          0
##  5 Chau~ Z2    Buse~    10        0             0        0          0
##  6 Chau~ Z2    Buse~    16        0             0        0          0
##  7 Chau~ Z2    Buse~    10        0             0        0          0
##  8 Chau~ Z2    Proto    14        0             0        0          0
##  9 Chau~ Z3    Pani~    30        0             0       50          0
## 10 Chau~ Z3    Pani~    30        0             0        0          0
## # ... with 18 more rows, and 10 more variables: CrevetteBouquet <int>,
## #   Girelle <int>, Oblade <int>, PageotAcarne <int>, Poulpe <int>,
## #   RougetDeRoche <int>, Seiche <int>, SerranChevrette <int>, Sparaillon <int>,
## #   Tacaud <int>
…
